<svg width="851" height="605" viewBox="0 0 851 605" fill="none" xmlns="http://www.w3.org/2000/svg">
<path d="M851 485.821V595.068V605H-4V72.8317L16.6922 81.1081V25.6566L60.5595 42.2093V0L69.6641 4.13817V45.5198L116.842 62.9001V116.696L131.741 125.8V522.237H140.845V185.39H160.71V157.25H181.402V125.8H196.3V105.109H209.543V77.7975H227.752V22.3461H236.029V77.7975H255.894V105.109H266.653V131.594H280.724V157.25H299.761V185.39H314.659V534.651H352.733V77.7975L452.055 131.594V572.722H464.47V230.91L545.584 185.39V495.752H562.965V409.679V282.223H580.347V248.29H612.626V230.91H654.011V248.29H681.324V282.223H696.223V384.022L742.573 417.127H788.096V485.821H851Z" fill="#E6EBF1"/>
</svg>
