<svg width="1405" height="564" viewBox="0 0 1405 564" fill="none" xmlns="http://www.w3.org/2000/svg">
<path d="M1369.17 319.585H1025V319.355C1018.99 318.488 1013.47 315.121 1009.46 309.884C1005.46 304.648 1003.25 297.905 1003.25 290.92C1003.25 283.938 1005.46 277.197 1009.47 271.963C1013.47 266.73 1019 263.364 1025 262.498V262.267H1078.78C1083.15 262.267 1087.47 261.273 1091.5 259.343C1095.54 257.413 1099.2 254.584 1102.29 251.018C1105.37 247.452 1107.82 243.219 1109.49 238.562C1111.15 233.904 1112.01 228.913 1112 223.874C1112 218.839 1111.14 213.854 1109.47 209.203C1107.8 204.552 1105.35 200.326 1102.27 196.766C1099.19 193.207 1095.52 190.383 1091.49 188.456C1087.46 186.53 1083.14 185.538 1078.78 185.538H916.39C912.767 185.538 909.179 184.715 905.832 183.115C902.484 181.515 899.443 179.169 896.881 176.213C894.319 173.256 892.287 169.747 890.9 165.884C889.514 162.021 888.8 157.881 888.8 153.7C888.8 149.519 889.514 145.378 890.9 141.516C892.287 137.653 894.319 134.143 896.881 131.186C899.443 128.23 902.484 125.885 905.832 124.285C909.179 122.685 912.767 121.861 916.39 121.861H972.22C984.677 121.85 996.73 116.755 1006.25 107.478C1015.76 98.2004 1022.13 85.3383 1024.22 71.1664H1190.16C1198.33 71.1725 1206.17 67.4345 1211.95 60.7739C1217.73 54.1133 1220.99 45.0753 1221 35.6467C1221 26.216 1217.75 17.1727 1211.97 10.5053C1206.19 3.83785 1198.35 0.0923185 1190.18 0.092319H713.76C713.15 0.092319 712.53 0 711.91 0H193.79C187.136 0 180.754 3.05045 176.049 8.4803C171.343 13.9101 168.7 21.2746 168.7 28.9536C168.7 36.6325 171.343 43.997 176.049 49.4268C180.754 54.8567 187.136 57.9071 193.79 57.9071H283.07C283.023 58.9303 283 59.9612 283 60.9998C283 77.1535 288.561 92.6455 298.459 104.068C308.357 115.49 321.782 121.907 335.78 121.907H408.66C415.457 121.907 421.977 125.023 426.783 130.57C431.59 136.117 434.29 143.64 434.29 151.484C434.29 159.328 431.59 166.851 426.783 172.398C421.977 177.945 415.457 181.061 408.66 181.061H104.66C95.4622 181.073 86.6449 185.299 80.1457 192.81C73.6466 200.32 69.9973 210.501 70 221.116C70 231.736 73.6559 241.921 80.1634 249.431C86.6709 256.94 95.497 261.159 104.7 261.159H169.13C176.575 261.159 183.714 264.572 188.978 270.646C194.243 276.721 197.2 284.96 197.2 293.551C197.2 302.142 194.243 310.382 188.978 316.456C183.714 322.531 176.575 325.944 169.13 325.944H38.83C33.7299 325.944 28.6798 327.103 23.9681 329.356C19.2564 331.608 14.9753 334.91 11.3695 339.072C7.76368 343.234 4.90369 348.176 2.95289 353.613C1.00209 359.051 -0.00131215 364.879 1.28778e-06 370.765C1.28778e-06 382.649 4.09101 394.046 11.373 402.45C18.6551 410.853 28.5316 415.574 38.83 415.574H232.58C232.361 417.978 232.251 420.393 232.25 422.81C232.245 434.237 234.712 445.486 239.426 455.535C244.141 465.584 250.955 474.117 259.25 480.359H94.89C87.1483 480.359 79.7237 483.908 74.2495 490.225C68.7754 496.542 65.7 505.11 65.7 514.044V516.721C65.6947 521.149 66.4459 525.534 67.9105 529.626C69.3751 533.718 71.5243 537.437 74.2354 540.57C76.9465 543.703 80.1661 546.188 83.7102 547.884C87.2543 549.579 91.0533 550.452 94.89 550.452H560.81C568.276 550.46 575.458 547.155 580.87 541.22H987.87C990.501 548.004 994.776 553.765 1000.18 557.807C1005.59 561.849 1011.89 564 1018.33 564H1239.58C1243.97 564.008 1248.32 563.015 1252.38 561.08C1256.43 559.144 1260.12 556.304 1263.23 552.721C1266.33 549.138 1268.79 544.884 1270.47 540.201C1272.15 535.519 1273.01 530.5 1273 525.434C1273 515.221 1269.48 505.426 1263.23 498.204C1256.97 490.982 1248.48 486.925 1239.63 486.925H1102.19C1113.4 481.917 1123.03 473.115 1129.82 461.674C1136.61 450.234 1140.25 436.69 1140.25 422.821C1140.26 415.86 1139.35 408.937 1137.55 402.292H1369.17C1378.67 402.292 1387.79 397.935 1394.51 390.181C1401.23 382.427 1405 371.91 1405 360.944C1405 355.514 1404.08 350.136 1402.28 345.118C1400.48 340.1 1397.84 335.54 1394.51 331.7C1391.18 327.859 1387.23 324.812 1382.88 322.734C1378.54 320.655 1373.88 319.585 1369.17 319.585Z" fill="#DDE6EC" fill-opacity="0.5"/>
<path d="M195.89 92.9537H135.81C120.838 92.9537 108.7 106.96 108.7 124.238C108.7 141.516 120.838 155.523 135.81 155.523H195.89C210.862 155.523 223 141.516 223 124.238C223 106.96 210.862 92.9537 195.89 92.9537Z" fill="#DDE6EC" fill-opacity="0.5"/>
<path d="M1273.81 191.493H1180.89C1164.77 191.493 1151.7 206.574 1151.7 225.178C1151.7 243.781 1164.77 258.862 1180.89 258.862H1273.81C1289.93 258.862 1303 243.781 1303 225.178C1303 206.574 1289.93 191.493 1273.81 191.493Z" fill="#DDE6EC" fill-opacity="0.5"/>
</svg>
