<svg width="981" height="991" viewBox="0 0 981 991" fill="none" xmlns="http://www.w3.org/2000/svg">
<path d="M772.418 986.871C847.358 976.695 974.031 854.65 1028 794.899V58.2349C1007.95 102.18 936.407 163.704 810.582 58.2349C684.757 -47.2341 579.286 14.2895 542.279 58.2349C504.115 132.248 379.215 295.54 184.926 356.601C-57.9348 432.928 -10.5191 726.668 43.8354 794.899C98.19 863.13 193.021 816.872 427.787 794.899C662.552 772.927 605.885 905.919 635.953 944.082L636.761 945.108C666.257 982.556 679.587 999.478 772.418 986.871Z" fill="#E3EFF3"/>
</svg>
