<svg xmlns="http://www.w3.org/2000/svg" viewBox="0 0 478.564 467.378">
  <defs>
    <style>
      .cls-1, .cls-6 {
        fill: none;
      }

      .cls-1 {
        stroke: #707070;
        stroke-linecap: round;
        stroke-width: 2px;
        stroke-dasharray: 1 10;
      }

      .cls-2 {
        fill: #d2e5f3;
      }

      .cls-3, .cls-4 {
        fill: #82b7e1;
      }

      .cls-4 {
        font-size: 62px;
        font-family: AgencyFB-Reg, Agency FB;
      }

      .cls-5 {
        stroke: none;
      }
    </style>
  </defs>
  <g id="Group_67" data-name="Group 67" transform="translate(-444.302 -3208)">
    <g id="Group_66" data-name="Group 66">
      <g id="Ellipse_20" data-name="Ellipse 20" class="cls-1" transform="translate(455 3208)">
        <circle class="cls-5" cx="228.5" cy="228.5" r="228.5"/>
        <circle class="cls-6" cx="228.5" cy="228.5" r="227.5"/>
      </g>
      <g id="Ellipse_21" data-name="Ellipse 21" class="cls-1" transform="translate(559 3312)">
        <circle class="cls-5" cx="124.5" cy="124.5" r="124.5"/>
        <circle class="cls-6" cx="124.5" cy="124.5" r="123.5"/>
      </g>
      <g id="Group_62" data-name="Group 62" transform="translate(-1630.698 3441.512)">
        <circle id="Ellipse_2" data-name="Ellipse 2" class="cls-2" cx="10.433" cy="10.433" r="10.433" transform="translate(2075 -13)"/>
        <circle id="Ellipse_3" data-name="Ellipse 3" class="cls-3" cx="7.875" cy="7.875" r="7.875" transform="translate(2077.558 -10.442)"/>
      </g>
      <g id="Group_63" data-name="Group 63" transform="translate(-1401.698 3667.512)">
        <circle id="Ellipse_2-2" data-name="Ellipse 2" class="cls-2" cx="10.433" cy="10.433" r="10.433" transform="translate(2075 -13)"/>
        <circle id="Ellipse_3-2" data-name="Ellipse 3" class="cls-3" cx="7.875" cy="7.875" r="7.875" transform="translate(2077.558 -10.442)"/>
      </g>
      <g id="Group_65" data-name="Group 65" transform="translate(-1173 3439.512)">
        <circle id="Ellipse_2-3" data-name="Ellipse 2" class="cls-2" cx="10.433" cy="10.433" r="10.433" transform="translate(2075 -13)"/>
        <circle id="Ellipse_3-3" data-name="Ellipse 3" class="cls-3" cx="7.875" cy="7.875" r="7.875" transform="translate(2077.558 -10.442)"/>
      </g>
    </g>
    <g id="Group_64" data-name="Group 64" transform="translate(620 3402)">
      <text id="SURP" class="cls-4" transform="translate(0 57)"><tspan x="0" y="0">SURP</tspan></text>
      <path id="Subtraction_1" data-name="Subtraction 1" class="cls-3" d="M9.528,22.719h0A11.508,11.508,0,0,1,0,13.4H9.528v9.315Zm4.088-.092h0V13.4h9.017a11.511,11.511,0,0,1-9.016,9.224ZM22.633,9.315H13.616V.092a11.51,11.51,0,0,1,9.017,9.223Zm-13.105,0H0A11.508,11.508,0,0,1,9.528,0V9.315Z" transform="translate(105.354 4.271)"/>
    </g>
  </g>
</svg>
