<svg width="779" height="525" viewBox="0 0 779 525" fill="none" xmlns="http://www.w3.org/2000/svg">
<g filter="url(#filter0_d)">
<path d="M7 7.69471C7 4.93328 9.23858 2.6947 12 2.6947H760.051C762.812 2.6947 765.051 4.93328 765.051 7.6947V502C765.051 504.761 762.812 507 760.051 507H12C9.23856 507 7 504.761 7 502V7.69471Z" fill="white"/>
<path d="M63.2699 137.53C63.2699 135.771 64.6959 134.345 66.4549 134.345H141.835C143.594 134.345 145.02 135.771 145.02 137.53V141.777C145.02 143.536 143.594 144.962 141.835 144.962H66.4549C64.6959 144.962 63.2699 143.536 63.2699 141.777V137.53Z" fill="white"/>
</g>
<path d="M7 7.6947C7 4.93328 9.23858 2.6947 12 2.6947H760.051C762.812 2.6947 765.051 4.93328 765.051 7.6947V37.7307H7V7.6947Z" fill="#4A4A4A"/>
<path d="M50.2087 19.2302L47.3124 16.3339V12.9882C47.3124 12.3833 46.8222 11.893 46.2163 11.893C45.6119 11.893 45.1217 12.3833 45.1217 12.9882V14.1432L42.9651 11.9866C41.8989 10.921 40.0452 10.9229 38.9814 11.9886L31.7396 19.2302C31.3121 19.6586 31.3121 20.3517 31.7396 20.7794C32.1673 21.2076 32.8617 21.2076 33.2892 20.7794L40.5304 13.5375C40.7663 13.3028 41.182 13.3028 41.4167 13.5368L48.659 20.7794C48.8738 20.9935 49.1538 21.1 49.4337 21.1C49.7142 21.1 49.9946 20.9934 50.2087 20.7794C50.6364 20.3517 50.6364 19.6586 50.2087 19.2302Z" fill="#F1F1F1"/>
<path d="M41.3547 15.6163C41.1443 15.406 40.8037 15.406 40.5939 15.6163L34.224 21.9844C34.1234 22.0849 34.0664 22.2221 34.0664 22.3654V27.01C34.0664 28.0999 34.9501 28.9835 36.04 28.9835H39.1937V24.0994H42.7542V28.9835H45.908C46.9978 28.9835 47.8815 28.0999 47.8815 27.01V22.3654C47.8815 22.2221 47.825 22.0849 47.724 21.9844L41.3547 15.6163Z" fill="#F1F1F1"/>
<rect x="62.208" y="9.06494" width="689.04" height="22.2956" rx="5" fill="#F1F1F1"/>
<path d="M7 37.7306H160.946V507H12C9.23858 507 7 504.761 7 502V37.7306Z" fill="#66DDAA"/>
<rect x="7" y="37.7306" width="153.946" height="73.257" fill="#88E4AD"/>
<rect x="160.946" y="37.7306" width="604.105" height="73.257" fill="#E6EBF1"/>
<rect x="22.9253" y="123.728" width="31.8509" height="31.8509" rx="3" fill="#258D60"/>
<rect x="63.2698" y="134.345" width="81.7505" height="10.617" rx="3" fill="#258D60"/>
<rect x="22.9253" y="166.196" width="122.095" height="2.12339" fill="#258D60"/>
<rect x="608.981" y="58.9646" width="31.8509" height="31.8509" rx="3" fill="#999999"/>
<rect x="649.326" y="69.5814" width="81.7505" height="10.617" rx="3" fill="#999999"/>
<rect x="194.92" y="69.5814" width="207.031" height="10.617" rx="3" fill="#999999"/>
<rect x="194.92" y="144.962" width="207.031" height="10.617" rx="3" fill="#757575"/>
<rect x="194.92" y="315.895" width="207.031" height="10.617" rx="3" fill="#757575"/>
<rect x="194.92" y="402.954" width="207.031" height="10.617" rx="3" fill="#757575"/>
<rect x="194.92" y="168.319" width="15.9254" height="15.9254" rx="2" fill="#D3D3D3"/>
<rect x="220.401" y="171.504" width="294.09" height="10.617" rx="3" fill="#D3D3D3"/>
<rect x="194.92" y="190.615" width="15.9254" height="15.9254" rx="2" fill="#D3D3D3"/>
<rect x="220.401" y="193.8" width="268.609" height="10.617" rx="3" fill="#D3D3D3"/>
<rect x="194.92" y="212.91" width="15.9254" height="15.9254" rx="2" fill="#D3D3D3"/>
<rect x="220.401" y="216.096" width="314.262" height="10.617" rx="3" fill="#D3D3D3"/>
<rect x="194.92" y="235.206" width="15.9254" height="15.9254" rx="2" fill="#D3D3D3"/>
<rect x="220.401" y="238.391" width="331.249" height="10.617" rx="3" fill="#D3D3D3"/>
<rect x="194.92" y="257.502" width="15.9254" height="15.9254" rx="2" fill="#D3D3D3"/>
<rect x="220.401" y="260.687" width="288.781" height="10.617" rx="3" fill="#D3D3D3"/>
<rect x="194.92" y="279.797" width="15.9254" height="15.9254" rx="2" fill="#D3D3D3"/>
<rect x="220.401" y="282.982" width="253.745" height="10.617" rx="3" fill="#D3D3D3"/>
<rect x="639.771" y="134.345" width="110.416" height="31.8509" rx="3" fill="#999999"/>
<rect x="639.771" y="178.936" width="110.416" height="31.8509" rx="3" fill="#999999"/>
<rect x="640.832" y="336.067" width="31.8509" height="31.8509" rx="3" fill="#999999"/>
<rect x="688.609" y="336.067" width="31.8509" height="31.8509" rx="3" fill="#999999"/>
<rect x="640.832" y="246.885" width="43.5295" height="43.5295" rx="21.7648" fill="#CDCDCD"/>
<rect x="704.534" y="246.885" width="43.5295" height="43.5295" rx="21.7648" fill="#CDCDCD"/>
<rect x="640.832" y="312.71" width="81.7505" height="10.617" rx="3" fill="#999999"/>
<rect x="640.832" y="223.527" width="53.0848" height="10.617" rx="3" fill="#999999"/>
<rect x="22.9253" y="178.936" width="31.8509" height="31.8509" rx="3" fill="#258D60"/>
<rect x="63.2698" y="189.553" width="81.7505" height="10.617" rx="3" fill="#258D60"/>
<rect x="22.9253" y="221.404" width="122.095" height="2.12339" fill="#258D60"/>
<rect x="22.9253" y="234.144" width="31.8509" height="31.8509" rx="3" fill="#258D60"/>
<rect x="63.2698" y="244.761" width="81.7505" height="10.617" rx="3" fill="#258D60"/>
<rect x="22.9253" y="276.612" width="122.095" height="2.12339" fill="#258D60"/>
<rect x="22.9253" y="289.352" width="31.8509" height="31.8509" rx="3" fill="#258D60"/>
<rect x="63.2698" y="299.969" width="81.7505" height="10.617" rx="3" fill="#258D60"/>
<rect x="22.9253" y="331.82" width="122.095" height="2.12339" fill="#258D60"/>
<rect x="22.9253" y="344.561" width="31.8509" height="31.8509" rx="3" fill="#258D60"/>
<rect x="63.2698" y="355.178" width="81.7505" height="10.617" rx="3" fill="#258D60"/>
<rect x="22.9253" y="387.029" width="122.095" height="2.12339" fill="#258D60"/>
<rect x="22.9253" y="399.769" width="31.8509" height="31.8509" rx="3" fill="#258D60"/>
<rect x="63.2698" y="410.386" width="81.7505" height="10.617" rx="3" fill="#258D60"/>
<rect x="22.9253" y="442.237" width="122.095" height="2.12339" fill="#258D60"/>
<rect x="623.845" y="134.345" width="1.0617" height="348.236" fill="#CDCDCD"/>
<rect x="248.005" y="344.561" width="46.7146" height="10.617" rx="3" fill="#D3D3D3"/>
<rect x="248.005" y="361.548" width="79.6272" height="10.617" rx="3" fill="#D3D3D3"/>
<rect x="248.005" y="378.535" width="62.64" height="10.617" rx="3" fill="#D3D3D3"/>
<rect x="194.92" y="344.561" width="43.5295" height="43.5295" rx="3" fill="#D3D3D3"/>
<rect x="390.272" y="346.684" width="46.7146" height="10.617" rx="3" fill="#D3D3D3"/>
<rect x="390.272" y="363.671" width="79.6272" height="10.617" rx="3" fill="#D3D3D3"/>
<rect x="390.272" y="380.658" width="62.64" height="10.617" rx="3" fill="#D3D3D3"/>
<rect x="337.187" y="346.684" width="43.5295" height="43.5295" rx="3" fill="#D3D3D3"/>
<rect x="537.848" y="346.684" width="46.7146" height="10.617" rx="3" fill="#D3D3D3"/>
<rect x="537.848" y="363.671" width="79.6272" height="10.617" rx="3" fill="#D3D3D3"/>
<rect x="537.848" y="380.658" width="62.64" height="10.617" rx="3" fill="#D3D3D3"/>
<rect x="484.763" y="346.684" width="43.5295" height="43.5295" rx="3" fill="#D3D3D3"/>
<rect x="194.92" y="421.003" width="414.061" height="78.5655" fill="#D3D3D3"/>
<path d="M199.698 487.359L232.61 465.063L262.338 470.372L279.856 454.446L314.892 480.458L333.471 470.372L387.087 439.052L410.444 470.372L448.665 465.063L477.331 454.446L497.503 465.063L517.145 480.458L544.218 465.063L578.192 454.446L595.71 439.052" stroke="white" stroke-width="3"/>
<circle cx="232.61" cy="466.125" r="6.90102" fill="white"/>
<circle cx="279.325" cy="455.508" r="6.90102" fill="white"/>
<circle cx="315.423" cy="479.927" r="6.90102" fill="white"/>
<circle cx="386.556" cy="439.582" r="6.90102" fill="white"/>
<circle cx="409.913" cy="470.371" r="6.90102" fill="white"/>
<circle cx="476.8" cy="453.384" r="6.90102" fill="white"/>
<circle cx="518.206" cy="479.927" r="6.90102" fill="white"/>
<circle cx="577.661" cy="455.508" r="6.90102" fill="white"/>
<circle cx="543.687" cy="464.001" r="6.90102" fill="white"/>
<circle cx="450.258" cy="464.001" r="6.90102" fill="white"/>
<defs>
<filter id="filter0_d" x="0" y="0.694702" width="778.051" height="524.305" filterUnits="userSpaceOnUse" color-interpolation-filters="sRGB">
<feFlood flood-opacity="0" result="BackgroundImageFix"/>
<feColorMatrix in="SourceAlpha" type="matrix" values="0 0 0 0 0 0 0 0 0 0 0 0 0 0 0 0 0 0 127 0"/>
<feOffset dx="3" dy="8"/>
<feGaussianBlur stdDeviation="5"/>
<feColorMatrix type="matrix" values="0 0 0 0 0 0 0 0 0 0 0 0 0 0 0 0 0 0 0.1 0"/>
<feBlend mode="normal" in2="BackgroundImageFix" result="effect1_dropShadow"/>
<feBlend mode="normal" in="SourceGraphic" in2="effect1_dropShadow" result="shape"/>
</filter>
</defs>
</svg>
