<svg xmlns="http://www.w3.org/2000/svg" viewBox="0 0 345.109 512">
  <defs>
    <style>
      .cls-1 {
        fill: #dcdcdc;
      }
    </style>
  </defs>
  <g id="employee" transform="translate(-83.447)">
    <g id="Group_304" data-name="Group 304">
      <path id="Path_435" data-name="Path 435" class="cls-1" d="M421.054,414.843a7.5,7.5,0,0,0-7.5,7.5v70.514A4.146,4.146,0,0,1,409.413,497H369.1V349.3a7.5,7.5,0,0,0-15,0V497H272.911l23.543-25.9a13.446,13.446,0,0,0,3.244-10.787c-.01-.076-.022-.152-.035-.228L277.24,327.617l6.041-9.094c3.34,2.372,5.913,4.656,10.738,4.656a13.134,13.134,0,0,0,11.755-7.269h0l23.65-47.4L383.3,289.374c1.949.836,30.252,13.582,30.252,47.238v50.73a7.5,7.5,0,0,0,15,0v-50.73c0-44.344-37.969-60.463-39.585-61.128-.047-.02-.1-.039-.143-.057L299.156,240.7v-21.03a70.274,70.274,0,0,0,26.6-46.227,32.466,32.466,0,0,0,19.071-7.779,31.841,31.841,0,0,0,3.322-44.929V92.953a92.952,92.952,0,1,0-185.9,0v28.511a30.114,30.114,0,0,0-7.733,20.074,31.782,31.782,0,0,0,11.059,24.129,32.447,32.447,0,0,0,19.061,7.775,69.532,69.532,0,0,0,28.117,47.339V240.7l-89.571,34.725-.141.056c-1.617.665-39.585,16.784-39.585,61.128V492.855A19.164,19.164,0,0,0,102.589,512h71.457a7.5,7.5,0,1,0,0-15H157.909V349.3a7.5,7.5,0,0,0-15,0V497H102.59a4.146,4.146,0,0,1-4.141-4.141V336.611c0-33.769,28.493-46.486,30.243-47.234l53.834-20.87,23.652,47.4a13.133,13.133,0,0,0,11.756,7.27c4.8,0,7.349-2.249,10.738-4.656l6.041,9.094L212.292,460.085c-.013.075-.024.15-.035.226A13.448,13.448,0,0,0,215.5,471.1L239.044,497H209.049a7.5,7.5,0,1,0,0,15H409.414a19.164,19.164,0,0,0,19.142-19.142V422.344A7.5,7.5,0,0,0,421.054,414.843ZM315.375,263.069l-22.049,44.19c-.548-.389-12.233-8.691-26.517-18.834l27.235-33.617Zm-44.332,46.764-5.718,8.607h-18.7l-5.718-8.607,15.07-10.7Zm-43.3-66.712V229.085a76.1,76.1,0,0,0,28.36,5.376,70.412,70.412,0,0,0,28.052-5.846v14.567l-28.181,34.785ZM340.881,141.539a16.8,16.8,0,0,1-5.839,12.753,17.469,17.469,0,0,1-8.661,3.987V124.8A16.967,16.967,0,0,1,340.881,141.539Zm-156.874,16.74a16.946,16.946,0,0,1-14.5-16.741c0-8.018,6.647-14.544,14.5-16.359Zm.4-48.383a37.08,37.08,0,0,0-7.168,1.615V92.953a77.951,77.951,0,1,1,155.9,0V111a33.343,33.343,0,0,0-6.762-1.307c0-7.237.063-5.841-23.612-31.294a13.344,13.344,0,0,0-17.037-2.077c-26.13,17.069-58.005,25.644-87.415,23.532A13.336,13.336,0,0,0,184.41,109.9Zm14.6,54.288V114.927c32.375,1.9,66.318-7.722,93.739-25.283,10.858,11.658,16.738,17.773,18.634,20.1v54.44A55.378,55.378,0,0,1,256.1,219.459C221.91,219.46,199.008,192.934,199.008,164.184Zm19.615,143.075-22.049-44.19,21.293-8.247,27.241,33.625C231.255,298.284,219.88,306.366,218.623,307.259Zm8.6,154.443,21.709-128.263h14.071L284.717,461.7l-28.744,31.623Z"/>
    </g>
  </g>
</svg>
