<svg id="Group_64" data-name="Group 64" xmlns="http://www.w3.org/2000/svg" viewBox="0 0 127.988 69">
  <defs>
    <style>
      .cls-1, .cls-2 {
        fill: #82b7e1;
      }

      .cls-1 {
        font-size: 62px;
        font-family: AgencyFB-Reg, Agency FB;
      }
    </style>
  </defs>
  <text id="SURP" class="cls-1" transform="translate(0 57)"><tspan x="0" y="0">SURP</tspan></text>
  <path id="Subtraction_1" data-name="Subtraction 1" class="cls-2" d="M9.528,22.719h0A11.508,11.508,0,0,1,0,13.4H9.528v9.315Zm4.088-.092h0V13.4h9.017a11.511,11.511,0,0,1-9.016,9.224ZM22.633,9.315H13.616V.092a11.51,11.51,0,0,1,9.017,9.223Zm-13.105,0H0A11.508,11.508,0,0,1,9.528,0V9.315Z" transform="translate(105.354 4.271)"/>
</svg>
