<svg width="509" height="434" viewBox="0 0 509 434" fill="none" xmlns="http://www.w3.org/2000/svg">
<g clip-path="url(#clip0)">
<path d="M200.579 427.972C202.067 428.594 203.634 429.005 205.236 429.192C208.047 429.637 210.918 429.985 213.741 429.583C216.564 429.18 219.356 427.966 221.161 425.751C222.143 424.629 222.677 423.185 222.661 421.693C222.545 419.643 221.051 417.904 219.32 416.812C217.588 415.72 215.607 415.086 213.753 414.201C208.797 411.821 200.042 404.341 194.994 410.76C190.989 415.824 195.366 425.531 200.579 427.972Z" fill="#E5D1BD"/>
<path d="M29.0017 183.512C29.3065 241.329 29.715 283.576 31.0563 333.284C202.42 330.593 313.768 333.003 478.712 331.264C479.462 276.455 478.578 242.617 478.279 183.671C338.008 187.838 33.9278 179.382 29.0017 183.512Z" fill="#3CD493"/>
<path d="M502.782 358.049H28.9529V375.121H51.4128V416.794H65.3984V375.121H457.008V411.272H470.994V375.121H502.782V358.049Z" fill="#695843"/>
<path d="M37.7441 306.773C29.8734 314.516 22.1124 319.36 17.2473 326.127C190.659 324.089 318.03 323.168 484.943 321.313C475.901 314.119 481.943 314.845 472.621 303.808C330.662 305.724 42.7555 306.194 37.7441 306.773Z" fill="#118251"/>
<path d="M31.2086 323.985C31.1598 339.818 31.3183 351.381 32.4279 364.981C210.839 362.729 326.778 362.424 498.508 360.514C499.636 345.499 498.928 336.243 498.989 320.099C352.921 322.46 36.3602 322.765 31.2086 323.985Z" fill="#80A5AF"/>
<path d="M19.4117 378.434C8.51702 378.434 1.64005 361.411 1.12183 347.884C0.152473 320.324 -0.847371 292.673 1.16451 265.241C1.41447 261.842 1.7254 258.365 2.8106 255.308C9.95582 235.228 34.7507 245.161 34.7507 266.827V356.896C34.7507 368.788 27.8921 378.434 19.4117 378.434Z" fill="#7697A3"/>
<path d="M493.643 378.434C482.748 378.434 475.871 361.411 475.353 347.884C474.353 320.343 473.359 292.679 475.353 265.247C475.603 261.848 475.914 258.371 476.999 255.314C484.144 235.234 508.951 245.167 508.951 266.839V356.896C509 368.788 502.123 378.434 493.643 378.434Z" fill="#7697A3"/>
<path d="M41.1766 301.624C41.4083 303.045 41.6888 304.571 42.396 305.48C43.2922 306.633 44.5359 306.371 45.615 306.035C61.7832 301.032 74.9945 293.057 85.4441 283.008C82.1276 264.198 79.7072 244.844 78.2745 225.698C68.3127 219.169 57.6924 222.946 45.0297 218.821C41.829 217.778 38.421 216.222 35.0313 215.398C31.6415 214.575 28.4896 217.741 29.0078 221.5C32.7877 248.549 36.844 275.257 41.1766 301.624Z" fill="#C7B299"/>
<g opacity="0.41">
<path opacity="0.41" d="M42.1521 225.1C57.1254 228.15 68.5078 231.299 77.4698 234.532C78.8781 235.039 79.6707 239.987 78.2624 239.572C69.3918 236.961 58.1435 234.606 43.3288 232.623C40.0976 232.189 38.8721 224.434 42.1521 225.1Z" fill="black"/>
</g>
<g opacity="0.41">
<path opacity="0.41" d="M41.6642 251.5C57.7715 248.962 70.0013 249.859 79.5608 252.897C80.9874 253.349 81.1946 258.309 79.7619 257.949C70.3915 255.613 58.497 255.692 42.8896 259.365C39.5487 260.146 38.2867 252.031 41.6642 251.5Z" fill="black"/>
</g>
<g opacity="0.41">
<path opacity="0.41" d="M46.9013 280.226C61.8746 274.613 73.068 271.129 81.774 269.042C83.1091 268.719 83.9078 273.74 82.5787 274.167C73.9764 276.919 62.9171 281.263 48.1268 288.036C44.9321 289.5 43.664 281.44 46.9013 280.226Z" fill="black"/>
</g>
<path d="M198.859 431.242C205.968 432.481 213.138 433.339 220.338 433.811C224.148 434.061 228.038 434.195 231.72 433.201C240.341 430.839 244.371 419.674 234.848 415.226C230.667 413.277 226.211 411.985 221.636 411.394C214.93 410.528 219.655 414.585 218.728 419.167C217.655 424.451 215.93 424.738 210.986 423.756C204.621 422.499 200.146 420.29 193.616 422.212C191.787 422.743 189.812 423.756 189.495 425.61C189.251 427.02 190.141 428.429 191.324 429.216C192.561 429.934 193.929 430.399 195.348 430.583C196.514 430.815 197.685 431.035 198.859 431.242Z" fill="#534741"/>
<path d="M398.719 295.071C393.927 273.655 397.213 247.681 399.328 225.734C372.005 226.467 344.663 225.426 317.475 222.616L317.786 265.485C317.859 275.436 315.567 291.318 319.2 299.897C320.834 303.759 354.146 302.075 358.713 302.13C371.637 302.289 387.281 303.417 399.621 298.774C399.304 297.554 399.003 296.319 398.719 295.071Z" fill="#999999"/>
<g opacity="0.32">
<path opacity="0.32" d="M364.407 224.892C358.993 224.581 360.017 229.261 360.359 232.647C360.968 238.956 360.218 245.716 360.139 252.062C360.048 259.438 359.03 266.443 359.03 273.826C359.03 283.167 358.42 292.789 358.548 301.984C361.919 302.923 368.217 302.405 370.4 299.177C372.747 295.705 372.838 290.434 373.186 286.419L374.722 267.291C375.1 262.599 375.478 257.883 375.167 253.191C374.71 246.296 372.783 239.639 370.808 233.099C369.699 229.413 367.833 225.094 364.407 224.892Z" fill="#272525"/>
</g>
<path d="M458.075 303.686C458.075 304.998 458.02 306.425 457.343 307.536C456.472 308.963 454.905 309.366 453.472 309.635C428.476 314.32 399.645 314.973 367.51 310.635C368.621 282.04 366.706 253.407 361.797 225.215C387.677 218.65 413.314 226.478 434.89 224.367C442.699 223.605 450.29 221.561 457.502 223.934C458.144 250.939 458.335 277.523 458.075 303.686Z" fill="#F0F0F0"/>
<g opacity="0.41">
<path opacity="0.41" d="M447.491 233.038C421.264 233.851 395.113 235.801 369.04 238.889C364.352 239.444 364.297 246.876 369.04 246.314C395.097 243.227 421.248 241.276 447.491 240.463C452.283 240.31 452.302 232.891 447.491 233.038Z" fill="#95A6B0"/>
</g>
<g opacity="0.41">
<path opacity="0.41" d="M454.393 258.657C426.661 257.535 398.898 259.911 371.759 265.729C367.083 266.73 369.065 273.88 373.728 272.886C400.224 267.237 427.326 264.951 454.393 266.083C459.179 266.278 459.154 258.853 454.393 258.657Z" fill="#95A6B0"/>
</g>
<g opacity="0.41">
<path opacity="0.41" d="M453.338 286.034C426.476 286.181 399.651 287.186 372.863 289.049C368.12 289.378 368.089 296.804 372.863 296.474C399.659 294.607 426.484 293.602 453.338 293.46C458.118 293.429 458.124 286.01 453.338 286.034Z" fill="#95A6B0"/>
</g>
<path d="M143.228 126.208L129.626 124.469C129.69 120.818 130.044 117.178 130.687 113.584C126.938 112.138 122.615 110.009 122.073 106.018C121.973 104.751 122.086 103.477 122.408 102.248L125.542 86.8476C125.901 85.0721 126.285 83.2477 127.297 81.7468C129.078 79.1171 132.419 78.0371 135.558 77.5856C143.581 76.4386 152.233 78.4276 158.268 83.8396C159.941 85.2228 161.222 87.0218 161.981 89.0563C163.005 92.2229 162.066 95.6519 161.128 98.8186L158.512 107.672C157.512 111.064 156.104 114.908 152.775 116.092C151.007 116.702 148.953 116.458 147.343 117.422C144.49 119.118 144.77 123.249 143.228 126.208Z" fill="#EACDB0"/>
<path d="M190.824 76.1152C191.636 74.8483 192.532 73.6374 193.507 72.491C195.628 70.0504 198.213 67.9332 199.945 65.1693C201.676 62.4054 202.383 58.6286 200.469 56.0172C199.25 54.3149 197.195 53.418 195.201 52.7651C188.588 50.6131 181.519 50.2718 174.729 51.7767C168.303 53.2105 162.536 55.7365 156.165 53.1434C150.196 50.7028 145.801 51.496 139.442 53.5644C132.547 55.7975 123.365 56.1026 117.086 59.3608C114.49 60.799 112.284 62.8494 110.66 65.334C107.811 69.6058 106.215 74.5907 106.052 79.7238C105.89 84.8568 107.167 89.9329 109.739 94.3768C110.948 96.3238 112.325 98.1613 113.854 99.8681C116.97 103.456 120.695 107.885 125.084 109.313C125.31 105.353 122.067 92.7416 125.206 89.5811C130.187 84.5657 141.057 86.689 147.002 88.1411C153.495 89.7214 159.195 94.5232 165.627 95.7069C170.266 96.555 176.284 94.4439 180.32 92.1498C185.301 89.3431 187.831 80.734 190.824 76.1152Z" fill="#3A3029"/>
<path d="M230.342 175.568L236.287 172.975L245.425 166.441L244.273 158.631L235.799 162.127L235.189 160.309L228.977 161.096L221.514 167.38L221.539 175.837L230.342 175.568Z" fill="#EACDB0"/>
<path d="M120.859 154.848L179.789 191.999L221.35 178.735L221.332 164.287L179.07 170.29L139.314 118.941L120.859 154.848Z" fill="#DDAA66"/>
<path d="M306.519 266.601L158.549 224.117C151.336 221.957 150.428 207.9 154.208 203.983L296.869 13.6732C297.221 13.0691 297.75 12.5875 298.385 12.293C299.019 11.9986 299.728 11.9053 300.417 12.0259L434.036 30.3301C440.596 33.5273 443.334 47.6459 441.291 51.0017L311.433 264.85C310.458 266.388 307.977 266.986 306.519 266.601Z" fill="#D2D6D5"/>
<path d="M304.318 253.392L156.86 213.605C153.543 212.708 152.123 207.338 154.342 204.099L292.991 1.68394C293.34 1.08707 293.865 0.612281 294.493 0.324093C295.121 0.0359046 295.823 -0.0517057 296.503 0.0731678L434.03 30.3118C437.109 30.9891 438.523 36.2607 436.511 39.5799L308.172 251.537C307.269 253.075 305.763 253.782 304.318 253.392Z" fill="#E6E6E6"/>
<g opacity="0.13">
<path opacity="0.13" d="M245.913 218.907C245.62 222.476 241.645 224.782 236.988 224.068C232.33 223.354 228.8 219.864 229.062 216.283C229.324 212.701 233.366 210.389 238.018 211.121C242.67 211.853 246.206 215.337 245.913 218.907Z" fill="#333333"/>
</g>
<g opacity="0.53">
<path opacity="0.53" d="M426.97 70.6239L421.398 80.2459C421.298 80.4759 421.142 80.6769 420.944 80.8304C420.746 80.9838 420.512 81.0847 420.264 81.1236C420.017 81.1626 419.764 81.1383 419.528 81.0532C419.292 80.968 419.082 80.8246 418.916 80.6364C418.53 80.1791 418.291 79.615 418.233 79.0189C418.174 78.4229 418.297 77.823 418.587 77.2989L424.166 67.6709C424.265 67.4401 424.421 67.2383 424.619 67.0845C424.818 66.9307 425.052 66.8298 425.3 66.7914C425.548 66.753 425.802 66.7782 426.037 66.8648C426.273 66.9514 426.483 67.0965 426.647 67.2865C427.031 67.7452 427.267 68.3094 427.325 68.9051C427.383 69.5008 427.259 70.1 426.97 70.6239Z" fill="#333333"/>
</g>
<g opacity="0.53">
<path opacity="0.53" d="M416.947 86.8415L411.375 96.4635C411.275 96.6939 411.119 96.8954 410.92 97.0493C410.722 97.2033 410.488 97.3047 410.24 97.3442C409.992 97.3838 409.738 97.3601 409.502 97.2755C409.266 97.1909 409.054 97.048 408.888 96.86C408.501 96.4041 408.262 95.841 408.203 95.2458C408.144 94.6506 408.268 94.0516 408.558 93.5287L414.137 83.8945C414.237 83.6641 414.393 83.4626 414.592 83.3086C414.79 83.1547 415.024 83.0533 415.272 83.0137C415.52 82.9742 415.774 82.9978 416.01 83.0825C416.246 83.1671 416.458 83.31 416.624 83.4979C417.011 83.9564 417.249 84.5219 417.307 85.1193C417.365 85.7166 417.239 86.3173 416.947 86.8415Z" fill="#333333"/>
</g>
<path d="M168.535 183.384L324.809 224.05L430.238 49.94L284.188 14.5334L168.535 183.384Z" fill="#EEF1F4"/>
<path d="M323.675 224.782L168.053 184.952L284.846 15.4854L430.092 50.8065L323.675 224.782Z" fill="#EEF1F4"/>
<path d="M422.099 63.8757L275.774 28.1458L284.907 14.8997L430.409 50.2818L422.099 63.8757Z" fill="#7790A0"/>
<path d="M342.63 181.896L208.291 147.911L269.988 57.7439L399.499 89.6299L342.63 181.896Z" fill="#F4DD69"/>
<path d="M290.278 55.1691L271.427 50.5381L281.09 36.4072L299.831 40.9894L290.278 55.1691Z" fill="#BA9BC9"/>
<path d="M333.387 53.2105L303.892 45.9864L305.215 44.0217L334.686 51.2336L333.387 53.2105Z" fill="#B0B0B0"/>
<path d="M373.856 67.3657L301.459 49.6228L299.594 52.3989L372.076 70.1846L373.856 67.3657Z" fill="#E4E4E4"/>
<path d="M171.095 269.786C177.754 268.078 184.275 265.873 190.605 263.191C197.311 260.262 203.785 256.571 210.876 254.649C217.966 252.727 226.069 252.898 232.013 257.205C241.024 263.74 239.237 276.986 231.738 283.759C225.422 289.469 218.076 293.924 210.565 297.932C180.516 313.967 147.383 323.37 113.397 325.511C101.265 326.261 87.1024 326.176 76.4394 319.409C66.7336 313.222 57.4423 299.756 57.4119 287.987C57.4119 283.887 58.5093 279.658 61.1735 276.541C63.8377 273.423 68.2212 271.659 72.1779 272.697C75.6773 273.636 78.2745 276.492 81.3228 278.438C86.8768 281.977 93.8208 282.428 100.405 282.288C118.811 281.91 136.918 277.804 154.872 273.746C160.292 272.459 165.724 271.226 171.095 269.786Z" fill="#343434"/>
<path d="M115.159 125.689C73.1594 160.205 53.3333 216.899 55.0159 271.263C55.0769 273.252 55.211 275.381 56.412 276.974C57.4363 278.334 59.0763 279.073 60.6797 279.683C74.7933 285.125 90.3275 285.272 105.447 284.869C120.853 284.454 136.144 283.002 151.513 282.148C156.39 281.879 163.67 282.972 166.62 278.585C169.407 274.442 167.663 262.343 167.395 257.51C165.749 227.888 153.903 199.712 153.824 169.906C153.824 159.4 155.25 148.728 152.921 138.484C148.148 117.58 130.919 112.748 115.159 125.689Z" fill="#DDAA66"/>
<g style="mix-blend-mode:multiply" opacity="0.09">
<g style="mix-blend-mode:multiply" opacity="0.09">
<path d="M419.398 63.9611L268.202 27.3525L196.921 131.26L282.767 150.565L286.37 164.781C287.029 167.386 290.028 168.173 293.076 166.538L310.903 156.886L355.244 163.701L419.398 63.9611Z" fill="black"/>
</g>
</g>
<path d="M416.636 47.9449L265.44 11.3364L194.11 115.25L279.956 134.555L283.56 148.771C284.218 151.376 287.218 152.163 290.266 150.528L308.092 140.876L352.433 147.691L416.636 47.9449Z" fill="#FFFFF3"/>
<path d="M291.357 194.092C288.169 199.968 280.383 203.171 274 201.225C267.617 199.278 265.044 192.915 268.288 187.045C271.531 181.175 279.261 178.058 285.62 180.004C291.979 181.95 294.527 188.247 291.357 194.092Z" fill="#FFFFF3"/>
<g opacity="0.46">
<path opacity="0.46" d="M240.115 188.302C240.048 188.302 240.03 188.259 240.011 188.21C239.584 187.566 239.197 186.896 238.853 186.203L238.402 185.379C238.292 185.16 238.201 184.97 238.128 184.818C237.544 183.585 237.216 182.246 237.164 180.882C237.202 180.066 237.431 179.27 237.833 178.558C238.236 177.847 238.8 177.24 239.481 176.788C240.023 176.389 240.643 176.108 241.3 175.963C241.957 175.818 242.638 175.812 243.298 175.946C244.31 176.166 245.626 177.051 245.797 178.058C246.328 177.763 246.915 177.585 247.519 177.536C248.123 177.486 248.732 177.567 249.303 177.771C249.786 177.946 250.218 178.241 250.557 178.629C250.896 179.016 251.131 179.483 251.241 179.986C251.552 181.444 250.693 183.537 249.211 184.604C247.833 185.556 246.334 186.322 244.755 186.88C244.06 187.143 242.883 187.49 242.011 187.771C240.993 188.076 240.505 188.222 240.267 188.277C240.221 188.303 240.167 188.312 240.115 188.302ZM239.591 186.551C239.908 187.112 240.2 187.612 240.335 187.838C241.023 187.643 243.499 186.917 244.602 186.502C246.132 185.961 247.583 185.221 248.919 184.299C249.063 184.195 249.201 184.083 249.333 183.964L249.809 183.384C250.199 182.942 250.486 182.419 250.65 181.852C250.813 181.286 250.849 180.69 250.754 180.108C250.66 179.66 250.452 179.244 250.151 178.9C249.85 178.556 249.465 178.295 249.034 178.143C248.083 177.765 246.492 177.862 245.712 178.613L245.194 179.113L245.309 178.503C245.468 177.637 244.23 176.599 243.102 176.355C242.522 176.239 241.923 176.245 241.345 176.374C240.766 176.502 240.221 176.749 239.743 177.1C239.125 177.511 238.612 178.062 238.246 178.709C237.881 179.355 237.673 180.079 237.64 180.821C237.692 182.141 238.012 183.436 238.579 184.629C238.713 184.934 238.945 185.391 239.268 185.977L239.591 186.551Z" fill="#333333"/>
</g>
<path d="M285.248 186.502C285.781 185.757 286.034 184.847 285.961 183.933C285.894 183.472 285.68 183.044 285.35 182.715C285.021 182.385 284.594 182.17 284.132 182.103C283.744 182.051 283.35 182.069 282.968 182.158C282.259 182.309 281.6 182.638 281.053 183.112C280.505 183.587 280.086 184.193 279.834 184.873L275.219 183.464L269.848 193.226L284.48 197.692L289.79 187.93L285.248 186.502ZM283.011 182.53C283.334 182.454 283.669 182.438 283.998 182.481C284.387 182.542 284.745 182.726 285.021 183.006C285.296 183.286 285.474 183.648 285.529 184.037C285.591 184.872 285.356 185.702 284.864 186.38L280.237 184.964C280.451 184.354 280.818 183.809 281.304 183.383C281.79 182.956 282.378 182.663 283.011 182.53ZM284.303 197.173L270.446 192.945L274.774 185.087L288.583 189.309L288.784 188.943L274.957 184.708L275.396 183.915L289.199 188.137L284.303 197.173Z" fill="#333333"/>
<g opacity="0.46">
<path opacity="0.46" d="M212.418 165.513L204.425 166.813L199.396 175.452L203.48 176.673L207.468 177.893L211.735 179.193L216.716 170.547L212.418 165.513ZM204.06 176.496L206.254 172.707L209.48 173.689L207.285 177.448L204.06 176.496ZM211.552 178.772L207.675 177.551L210.065 173.421L206.084 172.2L203.682 176.331L199.969 175.221L204.682 167.124L212.186 165.904L216.228 170.651L211.552 178.772Z" fill="#333333"/>
</g>
<g opacity="0.46">
<path opacity="0.46" d="M314.902 210.34L312.464 205.581C313.755 204.924 314.787 203.849 315.39 202.53C315.677 201.93 315.823 201.273 315.817 200.607C315.81 199.942 315.652 199.287 315.353 198.693C315.028 198.1 314.577 197.586 314.031 197.187C313.485 196.789 312.859 196.515 312.195 196.386C310.694 196.065 309.129 196.265 307.757 196.954C304.806 198.388 303.41 201.512 304.654 203.922C304.943 204.459 305.338 204.932 305.814 205.313C306.291 205.694 306.84 205.974 307.428 206.136L307.824 206.24C309.262 206.55 310.761 206.379 312.092 205.752L314.53 210.511L314.902 210.34ZM307.952 205.911C307.333 205.792 306.747 205.537 306.238 205.164C305.729 204.792 305.309 204.311 305.007 203.757C303.849 201.524 305.148 198.626 307.885 197.289C309.159 196.651 310.613 196.466 312.006 196.765L312.372 196.862C312.915 197.013 313.422 197.272 313.863 197.623C314.304 197.974 314.67 198.41 314.939 198.906C315.215 199.458 315.362 200.067 315.367 200.684C315.372 201.302 315.236 201.913 314.969 202.469C314.375 203.748 313.35 204.776 312.073 205.374C310.8 206.016 309.347 206.205 307.952 205.911Z" fill="#333333"/>
</g>
<g opacity="0.07">
<path opacity="0.07" d="M239.262 110.564C236.981 114.456 239.871 118.496 245.712 119.606L315.487 132.62C321.249 133.694 327.626 131.4 329.717 127.501C331.802 123.621 328.857 119.618 323.133 118.538L253.875 105.518C248.077 104.432 241.536 106.683 239.262 110.564Z" fill="#272525"/>
</g>
<path d="M337.752 128.874C337.076 130.149 335.131 130.924 333.418 130.601C331.705 130.277 330.869 128.984 331.552 127.715C332.235 126.446 334.174 125.671 335.887 125.994C337.6 126.317 338.441 127.599 337.752 128.874Z" fill="#7C2B4A"/>
<path d="M336.393 128.264L335.265 128.05L335.71 127.215L334.85 127.05L334.405 127.892L333.271 127.678L332.93 128.319L334.058 128.532L333.613 129.368L334.472 129.533L334.924 128.691L336.051 128.905L336.393 128.264Z" fill="white"/>
<path d="M258.143 117.3L257.923 116.079C257.82 115.616 257.759 115.317 257.716 115.005C257.375 115.243 257.051 115.463 256.497 115.817L255.119 116.714L254.162 116.537L257.515 114.511L256.966 111.821L257.929 112.004L258.143 113.267C258.204 113.62 258.246 113.877 258.277 114.176C258.618 113.932 258.886 113.743 259.319 113.486L260.837 112.547L261.795 112.724L258.496 114.676L259.106 117.483L258.143 117.3Z" fill="#666666"/>
<path d="M262.795 112.937L263.624 113.096L261.185 117.312L263.941 117.825L263.648 118.337L260.057 117.666L262.795 112.937Z" fill="#666666"/>
<g opacity="0.13">
<path opacity="0.13" d="M281.926 125.427L281.188 125.287L288.065 113.041L288.803 113.181L281.926 125.427Z" fill="#666666"/>
</g>
<path d="M306.05 121.266L304.398 121.552L304.52 120.942L306.592 120.588L307.495 120.759L304.318 126.531L303.294 126.342L306.05 121.266Z" fill="#666666"/>
<g opacity="0.42">
<path opacity="0.42" d="M274.086 22.1299L268.97 23.8688L270.946 27.3466L271.555 27.1269L269.976 24.3447L280.011 26.2971L280.304 25.809L270.336 23.8749L274.305 22.5265L274.086 22.1299Z" fill="#666666"/>
</g>
<path d="M189.391 415.415C189.794 415.482 190.204 415.497 190.611 415.458C198.353 415.067 206.401 414.597 213.168 410.845C213.424 378.709 206.175 346.634 196.201 316.035C194.135 309.799 191.769 303.405 187.16 298.725C178.625 290.092 165.115 289.604 153.019 289.677L134.235 289.781C118.665 289.866 118.756 300.19 129.742 308.128C138.07 314.15 141.74 318.378 146.258 327.652C153.677 342.906 162.054 357.635 169.907 372.644C173.857 380.192 177.692 387.806 181.204 395.573C182.923 399.381 184.703 403.218 186.13 407.166C186.831 409.088 187.056 414.75 189.245 415.397L189.391 415.415Z" fill="#343434"/>
<path d="M270.952 194.33C270.738 193.763 270.019 193.598 269.415 193.592C267.452 193.592 265.568 194.293 263.739 195.007L260.374 196.313C259.837 196.555 259.265 196.709 258.679 196.771C258.149 196.779 257.62 196.732 257.1 196.63C257.071 196.486 257.028 196.345 256.972 196.209C256.646 195.532 256.123 194.969 255.472 194.592C255.283 194.442 255.043 194.37 254.802 194.391C254.625 194.445 254.467 194.546 254.345 194.684C253.887 195.117 252.211 196.441 250.62 197.875C248.955 198.485 247.309 199.223 245.59 199.705C241.237 200.926 230.629 198.326 229.428 204.41C229.126 205.574 229.033 206.782 229.153 207.979C229.349 208.943 229.706 209.867 230.208 210.712C230.574 211.384 230.988 212.543 231.702 212.75C232.415 212.958 234.275 212.232 235.061 212.073L241.804 210.706C244.011 210.261 246.645 209.944 248.187 211.579C248.487 211.969 248.813 212.338 249.162 212.683C249.616 213.006 250.134 213.226 250.68 213.33C252.672 213.858 254.718 214.15 256.777 214.202C258.637 214.202 259.356 212.945 260.569 211.719C261.179 211.109 261.886 210.621 262.459 209.98C264.142 208.119 262.983 205.191 262.624 203.006C262.587 202.787 259.728 201.09 259.277 200.755C259.332 200.791 264.026 198.485 264.52 198.314C266.355 197.724 268.137 196.981 269.848 196.093C270.482 195.697 271.214 195.038 270.952 194.33Z" fill="#E5D1BD"/>
<path d="M182.667 215.752C185.105 217.29 187.581 218.846 190.336 219.688C192.557 220.287 194.841 220.618 197.14 220.676C211.397 221.479 225.692 220.057 239.512 216.46C239.863 209.739 238.883 203.014 236.628 196.673C224.916 196.962 213.2 196.317 201.591 194.745C199.203 194.516 196.857 193.966 194.616 193.11C191.446 191.755 188.891 189.303 186.41 186.899L157.561 158.966C151.757 153.347 145.703 147.575 138.088 144.897C116.97 137.471 104.557 162.945 120.329 176.661C138.033 192.061 162.78 203.177 182.667 215.752Z" fill="#DDAA66"/>
<path d="M377.106 52.7162C370.948 51.1603 364.876 49.4214 358.718 47.835C358.397 47.7693 358.064 47.7912 357.754 47.8985C357.444 48.0059 357.169 48.1947 356.957 48.4452C354 52.106 351.159 55.7669 348.354 59.4948L291.296 44.4487L282.932 74.7362L327.699 86.5485C326.638 87.8359 325.565 89.1172 324.468 90.3924L275.981 77.5794C274.25 77.1218 272.982 79.66 274.713 80.1176L324.224 93.1808C324.545 93.2465 324.878 93.2246 325.188 93.1172C325.498 93.0099 325.774 92.8211 325.986 92.5706C337.74 79.0743 347.367 64.4614 358.511 50.6356C364.303 52.1182 370.028 53.7473 375.832 55.2116C377.581 55.6936 378.849 53.1555 377.106 52.7162Z" fill="#6C5984"/>
<path d="M288.736 87.6347C286.248 88.495 284.748 90.8623 285.376 92.9185C286.004 94.9747 288.528 95.9387 291.01 95.0723C293.491 94.2059 294.997 91.8446 294.369 89.7885C293.741 87.7323 291.217 86.7744 288.736 87.6347Z" fill="#6C5984"/>
<path d="M310.116 92.3145C308.93 92.0393 307.686 92.1605 306.575 92.6596C305.465 93.1588 304.548 94.0084 303.965 95.0785C303.702 95.5451 303.554 96.0673 303.531 96.6024C303.509 97.1375 303.614 97.6703 303.837 98.1571C304.06 98.644 304.395 99.071 304.815 99.4034C305.234 99.7358 305.726 99.964 306.251 100.069C307.437 100.345 308.681 100.223 309.792 99.7243C310.903 99.2252 311.82 98.3756 312.403 97.3055C312.665 96.8389 312.814 96.3166 312.836 95.7815C312.858 95.2465 312.754 94.7137 312.531 94.2268C312.308 93.74 311.973 93.3129 311.553 92.9806C311.133 92.6482 310.641 92.4199 310.116 92.3145Z" fill="#6C5984"/>
</g>
<defs>
<clipPath id="clip0">
<rect width="509" height="434" fill="white"/>
</clipPath>
</defs>
</svg>
