<svg xmlns="http://www.w3.org/2000/svg" viewBox="0 0 246.175 240.421">
  <defs>
    <style>
      .cls-1, .cls-6 {
        fill: none;
      }

      .cls-1 {
        stroke: #707070;
        stroke-linecap: round;
        stroke-dasharray: 1 10;
      }

      .cls-2 {
        fill: #d2e5f3;
      }

      .cls-3, .cls-4 {
        fill: #82b7e1;
      }

      .cls-4 {
        font-size: 27px;
        font-family: AgencyFB-Reg, Agency FB;
      }

      .cls-5 {
        stroke: none;
      }
    </style>
  </defs>
  <g id="Group_1" data-name="Group 1" transform="translate(3196.347 -1027)">
    <g id="Group_66" data-name="Group 66" transform="translate(-3196.347 1027)">
      <g id="Ellipse_20" data-name="Ellipse 20" class="cls-1" transform="translate(5.503 0)">
        <circle class="cls-5" cx="117.541" cy="117.541" r="117.541"/>
        <circle class="cls-6" cx="117.541" cy="117.541" r="117.041"/>
      </g>
      <g id="Ellipse_21" data-name="Ellipse 21" class="cls-1" transform="translate(59.001 53.498)">
        <circle class="cls-5" cx="64.043" cy="64.043" r="64.043"/>
        <circle class="cls-6" cx="64.043" cy="64.043" r="63.543"/>
      </g>
      <g id="Group_62" data-name="Group 62" transform="translate(0 113.432)">
        <circle id="Ellipse_2" data-name="Ellipse 2" class="cls-2" cx="5.367" cy="5.367" r="5.367" transform="translate(0 0)"/>
        <circle id="Ellipse_3" data-name="Ellipse 3" class="cls-3" cx="4.051" cy="4.051" r="4.051" transform="translate(1.316 1.316)"/>
      </g>
      <g id="Group_63" data-name="Group 63" transform="translate(117.798 229.687)">
        <circle id="Ellipse_2-2" data-name="Ellipse 2" class="cls-2" cx="5.367" cy="5.367" r="5.367" transform="translate(0 0)"/>
        <circle id="Ellipse_3-2" data-name="Ellipse 3" class="cls-3" cx="4.051" cy="4.051" r="4.051" transform="translate(1.316 1.316)"/>
      </g>
      <g id="Group_65" data-name="Group 65" transform="translate(235.441 112.403)">
        <circle id="Ellipse_2-3" data-name="Ellipse 2" class="cls-2" cx="5.367" cy="5.367" r="5.367" transform="translate(0 0)"/>
        <circle id="Ellipse_3-3" data-name="Ellipse 3" class="cls-3" cx="4.051" cy="4.051" r="4.051" transform="translate(1.316 1.316)"/>
      </g>
    </g>
    <g id="Group_64" data-name="Group 64" transform="translate(-3105.967 1126.794)">
      <text id="SURP" class="cls-4" transform="translate(0 25)"><tspan x="0" y="0">SURP</tspan></text>
      <path id="Subtraction_1" data-name="Subtraction 1" class="cls-3" d="M4.9,11.687h0A5.92,5.92,0,0,1,0,6.9H4.9ZM7,11.64H7V6.895h4.638A5.921,5.921,0,0,1,7,11.639Zm4.638-6.848H7V.047a5.921,5.921,0,0,1,4.638,4.744Zm-6.741,0H0A5.92,5.92,0,0,1,4.9,0V4.792Z" transform="translate(54.195 2.197)"/>
    </g>
  </g>
</svg>
