<svg xmlns="http://www.w3.org/2000/svg" viewBox="0 0 135 165">
  <defs>
    <style>
      .cls-1 {
        fill: none;
      }

      .cls-2 {
        fill: #fff;
      }
    </style>
  </defs>
  <g id="iconStepTree" transform="translate(-4147 -3243)">
    <rect id="Rectangle_313" data-name="Rectangle 313" class="cls-1" width="135" height="165" transform="translate(4147 3243)"/>
    <g id="iconStepTree-2" data-name="iconStepTree" transform="translate(4147 3255)">
      <path id="Path_525" data-name="Path 525" class="cls-2" d="M203.905,95.866h-6.114a5.013,5.013,0,1,1,0-10.027h12.226a4.157,4.157,0,1,0,0-8.313H205V72.512a4.157,4.157,0,0,0-8.313,0v5.063a13.325,13.325,0,0,0,1.1,26.6h6.114a5.013,5.013,0,1,1,0,10.026H191.678a4.157,4.157,0,1,0,0,8.313h5.013v5.014a4.157,4.157,0,1,0,8.313,0v-5.063a13.324,13.324,0,0,0-1.1-26.6Zm0,0" transform="translate(-133.349 -49.414)"/>
      <path id="Path_526" data-name="Path 526" class="cls-2" d="M135,50.608a12.666,12.666,0,0,0-5.512-10.13L79.2,3.6a20.81,20.81,0,0,0-23.4,0L5.511,40.478A12.666,12.666,0,0,0,0,50.608,12.668,12.668,0,0,0,5.511,60.738l11.983,8.787V92.637c0,7.608,4.806,17.093,10.941,21.593L55.8,134.3a20.781,20.781,0,0,0,23.4,0l27.363-20.066c6.135-4.5,10.941-13.984,10.941-21.593V69.526l9.18-6.733v74.929a4.157,4.157,0,0,0,8.313,0V50.608ZM109.192,92.637c0,4.984-3.526,11.942-7.545,14.888L74.285,127.591c-3.614,2.651-9.956,2.651-13.571,0L33.352,107.525c-4.019-2.946-7.545-9.9-7.545-14.888V75.623L55.8,97.616a20.81,20.81,0,0,0,23.4,0l29.991-21.994V92.637Zm15.379-38.6L74.283,90.912a12.554,12.554,0,0,1-13.571,0L10.427,54.035a4.455,4.455,0,0,1-2.114-3.427,4.455,4.455,0,0,1,2.114-3.426L60.714,10.305a12.554,12.554,0,0,1,13.571,0l50.287,36.878a4.45,4.45,0,0,1,2.114,3.423v.01a4.458,4.458,0,0,1-2.114,3.419Zm0,0" transform="translate(0 0)"/>
    </g>
  </g>
</svg>
