<svg xmlns="http://www.w3.org/2000/svg" viewBox="0 0 6.651 13.794">
  <defs>
    <style>
      .cls-1 {
        fill: #c5ccd4;
      }
    </style>
  </defs>
  <path id="iconDollar" class="cls-1" d="M4.4,5.052v1.64h-.93V5.113a5.123,5.123,0,0,1-2.729-.65V2.777A3.761,3.761,0,0,0,1.99,3.45a4.551,4.551,0,0,0,1.478.272V.359A6.347,6.347,0,0,1,1.158-1.161,2.656,2.656,0,0,1,.633-2.808a2.691,2.691,0,0,1,.8-1.946,3.385,3.385,0,0,1,2.033-.986V-7.1H4.4v1.33a4.73,4.73,0,0,1,2.192.423V-3.73A3.846,3.846,0,0,0,4.4-4.381V-.9A6.755,6.755,0,0,1,6.672.6a2.476,2.476,0,0,1,.612,1.64A2.5,2.5,0,0,1,6.521,4.1,3.732,3.732,0,0,1,4.4,5.052Zm-.93-6.379V-4.343a1.586,1.586,0,0,0-.9.484,1.3,1.3,0,0,0-.333.9,1.462,1.462,0,0,0,.272.915A2.93,2.93,0,0,0,3.467-1.327ZM4.4.767v2.91Q5.682,3.4,5.682,2.339,5.682,1.447,4.4.767Z" transform="translate(-0.633 7.102)"/>
</svg>
