<svg id="iconAdd" xmlns="http://www.w3.org/2000/svg" viewBox="0 0 17.113 17.113">
  <defs>
    <style>
      .cls-1 {
        fill: #fff;
      }
    </style>
  </defs>
  <g id="Group_219" data-name="Group 219">
    <g id="Group_218" data-name="Group 218">
      <path id="Path_344" data-name="Path 344" class="cls-1" d="M8.557,0a8.557,8.557,0,1,0,8.557,8.557A8.566,8.566,0,0,0,8.557,0Zm0,15.788a7.231,7.231,0,1,1,7.231-7.231A7.239,7.239,0,0,1,8.557,15.788Z"/>
    </g>
  </g>
  <g id="Group_221" data-name="Group 221" transform="translate(4.58 4.52)">
    <g id="Group_220" data-name="Group 220">
      <path id="Path_345" data-name="Path 345" class="cls-1" d="M144.313,138.552h-2.651V135.9a.663.663,0,0,0-1.326,0v2.651h-2.651a.663.663,0,0,0,0,1.326h2.651v2.651a.663.663,0,1,0,1.326,0v-2.651h2.651a.663.663,0,0,0,0-1.326Z" transform="translate(-137.022 -135.238)"/>
    </g>
  </g>
</svg>
