<svg xmlns="http://www.w3.org/2000/svg" viewBox="0 0 15.583 17">
  <defs>
    <style>
      .cls-1 {
        fill: #c5ccd4;
      }
    </style>
  </defs>
  <g id="iconOff" transform="translate(-21.331)">
    <g id="Group_191" data-name="Group 191" transform="translate(21.331)">
      <g id="Group_190" data-name="Group 190" transform="translate(0)">
        <path id="Path_317" data-name="Path 317" class="cls-1" d="M32.239,60.466a.708.708,0,1,0-.567,1.3,6.374,6.374,0,1,1-5.1,0,.708.708,0,0,0-.568-1.3,7.792,7.792,0,1,0,6.234,0Z" transform="translate(-21.331 -58.401)"/>
        <path id="Path_318" data-name="Path 318" class="cls-1" d="M235.364,7.792a.708.708,0,0,0,.708-.708V.708a.708.708,0,1,0-1.417,0V7.083A.708.708,0,0,0,235.364,7.792Z" transform="translate(-227.573)"/>
      </g>
    </g>
  </g>
</svg>
