<svg xmlns="http://www.w3.org/2000/svg" viewBox="0 0 90.212 91.664">
  <defs>
    <style>
      .cls-1 {
        fill: #3a65cc;
      }
    </style>
  </defs>
  <g id="iconStandart" transform="translate(-0.475)">
    <circle id="Ellipse_88" data-name="Ellipse 88" class="cls-1" cx="1.528" cy="1.528" r="1.528" transform="translate(17.356 7.582)"/>
    <circle id="Ellipse_89" data-name="Ellipse 89" class="cls-1" cx="1.528" cy="1.528" r="1.528" transform="translate(12.773 12.165)"/>
    <circle id="Ellipse_90" data-name="Ellipse 90" class="cls-1" cx="1.528" cy="1.528" r="1.528" transform="translate(49.439 12.165)"/>
    <circle id="Ellipse_91" data-name="Ellipse 91" class="cls-1" cx="1.528" cy="1.528" r="1.528" transform="translate(54.022 7.582)"/>
    <circle id="Ellipse_92" data-name="Ellipse 92" class="cls-1" cx="1.528" cy="1.528" r="1.528" transform="translate(58.605 12.165)"/>
    <circle id="Ellipse_93" data-name="Ellipse 93" class="cls-1" cx="1.528" cy="1.528" r="1.528" transform="translate(40.272 21.332)"/>
    <circle id="Ellipse_94" data-name="Ellipse 94" class="cls-1" cx="1.528" cy="1.528" r="1.528" transform="translate(31.106 21.332)"/>
    <circle id="Ellipse_95" data-name="Ellipse 95" class="cls-1" cx="1.528" cy="1.528" r="1.528" transform="translate(76.938 21.332)"/>
    <circle id="Ellipse_96" data-name="Ellipse 96" class="cls-1" cx="1.528" cy="1.528" r="1.528" transform="translate(35.689 25.915)"/>
    <circle id="Ellipse_97" data-name="Ellipse 97" class="cls-1" cx="1.528" cy="1.528" r="1.528" transform="translate(40.272 30.498)"/>
    <circle id="Ellipse_98" data-name="Ellipse 98" class="cls-1" cx="1.528" cy="1.528" r="1.528" transform="translate(26.523 25.915)"/>
    <circle id="Ellipse_99" data-name="Ellipse 99" class="cls-1" cx="1.528" cy="1.528" r="1.528" transform="translate(31.106 30.498)"/>
    <circle id="Ellipse_100" data-name="Ellipse 100" class="cls-1" cx="1.528" cy="1.528" r="1.528" transform="translate(81.521 25.915)"/>
    <circle id="Ellipse_101" data-name="Ellipse 101" class="cls-1" cx="1.528" cy="1.528" r="1.528" transform="translate(72.355 25.915)"/>
    <circle id="Ellipse_102" data-name="Ellipse 102" class="cls-1" cx="1.528" cy="1.528" r="1.528" transform="translate(76.938 30.498)"/>
    <path id="Path_527" data-name="Path 527" class="cls-1" d="M90.688,18.5a1.674,1.674,0,0,0-.136-.662,1.916,1.916,0,0,0-.072-.443L84.184,3.66A6.3,6.3,0,0,0,78.472,0H14.295A6.3,6.3,0,0,0,8.584,3.659L2.377,17.14l-.082.22A1.919,1.919,0,0,0,2.236,18a1.944,1.944,0,0,0-.157.767V29.027a12.129,12.129,0,0,0,1.528,5.9V46.16a5.732,5.732,0,0,0-1.421,2.8,6.029,6.029,0,0,0,.157,2.794,1.97,1.97,0,0,1-.318,1.624,8.837,8.837,0,0,0-.807,8.207,5.557,5.557,0,0,0,.626,1.082,2.043,2.043,0,0,1,.336,1.687,6.161,6.161,0,0,0-.162.956A12.641,12.641,0,0,0,2.4,69.07a6.763,6.763,0,0,0,1.855,3.9,3.944,3.944,0,0,0,2.408.93v5.538H2.188l-.775.032L.475,80.628,2.314,91.664H89.16V34.93a12.133,12.133,0,0,0,1.528-5.9ZM86.469,33.483c-.05.092-.108.179-.162.267a9.451,9.451,0,0,1-.663.959s-.008.011-.012.015a9.21,9.21,0,0,1-.755.84c-.057.055-.118.105-.176.159-.09.084-.185.159-.278.238a1.521,1.521,0,0,0-2.9.643,1.5,1.5,0,0,0,.342.924c-.084.034-.17.063-.254.093-.2.072-.394.141-.6.2-.141.041-.283.075-.425.11-.223.053-.449.1-.678.133-.121.02-.241.041-.364.055a8.461,8.461,0,0,1-1.082.073,9.112,9.112,0,0,1-3.4-.66,1.5,1.5,0,0,0,.342-.924,1.523,1.523,0,0,0-2.909-.636A9.227,9.227,0,0,1,70.3,33.162a1.5,1.5,0,0,0-.863-2.637,9.137,9.137,0,0,1-.133-1.5v-4.64a1.528,1.528,0,1,0,0-3.055V19.86H87.632v1.471a1.528,1.528,0,1,0,0,3.055v4.64a9.108,9.108,0,0,1-.133,1.5,1.5,1.5,0,0,0-.863,2.637c-.038.073-.069.151-.108.225Zm-49.253,1.6a1.528,1.528,0,0,0-1.528,1.528,1.509,1.509,0,0,0,1.3,1.482,9.307,9.307,0,0,1-1.3.1,9.176,9.176,0,0,1-9.166-9.166V19.86H44.856v9.166a9.172,9.172,0,0,1-6.849,8.858,1.5,1.5,0,0,0,.738-1.276A1.526,1.526,0,0,0,37.217,35.081Zm-24,3.042c-.122-.015-.243-.037-.364-.055-.229-.037-.455-.079-.678-.133-.142-.034-.284-.069-.425-.11-.2-.058-.4-.128-.6-.2-.137-.05-.277-.093-.409-.15a9.332,9.332,0,0,1-.843-.409c-.139-.076-.272-.163-.406-.247-.165-.1-.328-.208-.487-.321-.121-.086-.238-.174-.354-.266-.2-.16-.4-.328-.59-.507-.057-.053-.118-.1-.173-.157a9.458,9.458,0,0,1-.756-.84s-.008-.011-.012-.015a9.451,9.451,0,0,1-.663-.959c-.053-.089-.112-.176-.162-.267l-.058-.1a9.087,9.087,0,0,1-1.109-4.36V19.86H23.467v9.166A9.176,9.176,0,0,1,14.3,38.193,9.031,9.031,0,0,1,13.221,38.123ZM47.911,19.86H66.244v9.166a9.166,9.166,0,0,1-18.333,0V19.86ZM78.472,3.055a3.241,3.241,0,0,1,2.936,1.881l5.457,11.869H69.047L67.8,9.93l-1.25-6.875Zm-30.561,0h2.773a1.505,1.505,0,0,0-1.245,1.471,1.528,1.528,0,0,0,3.055,0,1.507,1.507,0,0,0-1.245-1.471h8.6a1.505,1.505,0,0,0-1.245,1.471,1.528,1.528,0,0,0,3.055,0,1.507,1.507,0,0,0-1.245-1.471h3.026l.839,4.614a1.509,1.509,0,0,0-1.091,1.439,1.528,1.528,0,0,0,1.528,1.528c.035,0,.064-.018.1-.02l1.123,6.189H47.911Zm-18.585,0H44.856v13.75H26.827l1.25-6.875ZM8.868,10.346a1.49,1.49,0,0,0,.849.292A1.528,1.528,0,0,0,11.246,9.11,1.505,1.505,0,0,0,10.1,7.66L11.36,4.935a3.211,3.211,0,0,1,2.305-1.787,1.524,1.524,0,1,0,2.163,1.38,1.507,1.507,0,0,0-1.245-1.471h8.6a1.505,1.505,0,0,0-1.245,1.471,1.528,1.528,0,0,0,3.055,0,1.507,1.507,0,0,0-1.245-1.471h2.47L24.972,9.93l-.481,2.643a1.512,1.512,0,0,0-1.022-.408,1.528,1.528,0,1,0,.561,2.942l-.31,1.7H5.894ZM5.39,68.438a10.077,10.077,0,0,1-.328-2.854,3.152,3.152,0,0,1,.084-.5A5.117,5.117,0,0,0,4.3,60.84a2.632,2.632,0,0,1-.281-.486,5.76,5.76,0,0,1,.541-5.268,4.983,4.983,0,0,0,.715-4.2,3.023,3.023,0,0,1-.081-1.372,2.666,2.666,0,0,1,.8-1.464l.1-.081a2.093,2.093,0,0,1,.383-.254l1.384-1.131a1.2,1.2,0,0,1,.387-.252c.034-.015.067-.028.1-.04a2.436,2.436,0,0,1,.848-.119c.156,0,.307.017.4.029a3.828,3.828,0,0,1,1.483.529l.336.278a3.641,3.641,0,0,1,.4.385,2.578,2.578,0,0,1,.3.42,2.514,2.514,0,0,1,.194,1.609,4.658,4.658,0,0,0,.943,3.906,1.888,1.888,0,0,1,.376.8,3.039,3.039,0,0,1,.057.6A6.329,6.329,0,0,1,13.166,57v0a8.609,8.609,0,0,1-1,1.89,4.927,4.927,0,0,0-.79,3.729,5.85,5.85,0,0,0,.4,1.338,4.2,4.2,0,0,1,.156,2.761,4.8,4.8,0,0,1-.272.7,5.462,5.462,0,0,1-.837,1.248c-.015.017-.031.031-.046.047a6.89,6.89,0,0,1-.507.506,8.384,8.384,0,0,1-1.7,1.169l-.02.009a5.239,5.239,0,0,1-.741.3,1.7,1.7,0,0,1-1.561-.041A4.655,4.655,0,0,1,5.39,68.438Zm6.09,20.171H4.9L3.883,82.5H12.5ZM9.718,79.442V73.224c.086-.04.17-.083.254-.125a11.113,11.113,0,0,0,2.284-1.563l0,0c.014-.012.023-.024.037-.037a9.7,9.7,0,0,0,.82-.823c.038-.044.07-.092.108-.136.192-.229.374-.464.539-.706.075-.108.142-.218.211-.328.124-.2.237-.4.342-.61.055-.108.113-.217.163-.328a7.864,7.864,0,0,0,.371-.966A6.763,6.763,0,0,0,15.1,66.4a7.416,7.416,0,0,0,.034-1.25,7.116,7.116,0,0,0-.555-2.4,2.151,2.151,0,0,1,.061-2.058c.15-.206.283-.449.422-.68A12.186,12.186,0,0,0,16,58.129a8.073,8.073,0,0,0,.623-4.6,4.878,4.878,0,0,0-1.016-2.146,1.639,1.639,0,0,1-.312-1.321,5.507,5.507,0,0,0,.105-1.216c0-.105-.006-.208-.014-.313a5.548,5.548,0,0,0-.167-1.056c-.011-.038-.008-.079-.018-.118H49.434V79.444H9.718Zm48.887,9.166V47.36H79.993V88.608Zm27.5,0H83.049V44.3H55.55v44.3H14.577L15.6,82.5H52.5V44.3H12.943a6.837,6.837,0,0,0-2.913-1.127,6.448,6.448,0,0,0-1.153-.052c-.1,0-.2.014-.293.021a5.292,5.292,0,0,0-.828.134c-.078.02-.157.034-.234.055a4.5,4.5,0,0,0-.859.345v-5.11a12.044,12.044,0,0,0,2.883,1.714l.012,0q.506.213,1.034.379l.179.055c.3.09.6.167.907.234.092.02.183.041.275.06q.431.083.874.134c.1.012.2.029.3.038.388.037.779.06,1.173.06a12.2,12.2,0,0,0,1.522-.105c.144-.018.286-.043.428-.066.377-.061.747-.139,1.112-.234.127-.032.254-.061.379-.1a12.082,12.082,0,0,0,1.372-.489c.069-.029.131-.066.2-.1a12.291,12.291,0,0,0,1.1-.568c.124-.072.243-.145.364-.222.324-.2.636-.42.938-.652.084-.064.173-.124.255-.191a12.114,12.114,0,0,0,1.057-.961c.075-.076.144-.159.217-.238q.387-.417.735-.866c.087-.113.173-.226.255-.342a12.1,12.1,0,0,0,.668-1.037c.029-.05.066-.1.095-.147.029.05.066.1.095.147.2.357.429.7.668,1.037.082.116.168.229.255.342q.348.451.735.866c.073.079.141.162.217.238a12.114,12.114,0,0,0,1.057.961c.083.067.171.127.255.191.3.232.614.449.938.652.121.075.24.15.364.222a12.278,12.278,0,0,0,1.1.568c.067.031.131.067.2.1a11.977,11.977,0,0,0,1.372.489c.125.037.252.064.379.1.365.095.735.173,1.112.234.142.023.284.047.428.066a11.013,11.013,0,0,0,3.04,0c.144-.018.286-.043.428-.066.377-.061.747-.139,1.112-.234.127-.032.254-.061.379-.1a12.082,12.082,0,0,0,1.372-.489c.069-.029.131-.066.2-.1a12.292,12.292,0,0,0,1.1-.568c.124-.072.243-.145.364-.222.324-.2.636-.42.938-.652.084-.064.173-.124.255-.191a12.113,12.113,0,0,0,1.057-.961c.075-.076.144-.159.217-.238q.387-.417.735-.866c.087-.113.173-.226.255-.342a12.1,12.1,0,0,0,.668-1.037c.029-.05.066-.1.095-.147.029.05.066.1.095.147.2.357.429.7.668,1.037.083.116.168.229.255.342q.348.451.735.866c.073.079.141.162.217.238a12.114,12.114,0,0,0,1.057.961c.082.067.171.127.255.191.3.232.614.449.938.652.121.075.24.15.364.222a12.279,12.279,0,0,0,1.1.568c.067.031.131.067.2.1a11.977,11.977,0,0,0,1.372.489c.125.037.252.064.379.1.365.095.735.173,1.112.234.142.023.284.047.428.066a11.013,11.013,0,0,0,3.04,0c.144-.018.286-.043.428-.066.377-.061.747-.139,1.112-.234.127-.032.254-.061.379-.1a12.082,12.082,0,0,0,1.372-.489c.069-.029.131-.066.2-.1a12.291,12.291,0,0,0,1.1-.568c.124-.072.243-.145.364-.222.324-.2.636-.42.938-.652.084-.064.173-.124.255-.191a12.114,12.114,0,0,0,1.057-.961c.075-.076.144-.159.217-.238q.387-.417.735-.866c.087-.113.173-.226.255-.342a12.1,12.1,0,0,0,.668-1.037c.029-.05.066-.1.095-.147.029.05.066.1.095.147.2.357.429.7.668,1.037.082.116.168.229.255.342q.348.451.735.866c.073.079.141.162.217.238a12.114,12.114,0,0,0,1.057.961c.083.067.171.127.255.191.3.232.614.449.938.652.121.075.24.15.364.222a12.279,12.279,0,0,0,1.1.568c.067.031.131.067.2.1a11.977,11.977,0,0,0,1.372.489c.125.037.252.064.379.1.365.095.735.173,1.112.234.142.023.284.047.428.066a12.146,12.146,0,0,0,1.519.105c.4,0,.785-.023,1.173-.06.1-.009.2-.026.3-.038.293-.035.585-.078.874-.134.093-.018.183-.04.275-.06q.461-.1.907-.234c.06-.018.119-.035.179-.055.351-.112.7-.237,1.034-.379l.012,0A12.044,12.044,0,0,0,86.1,38.571Z"/>
    <path id="Path_528" data-name="Path 528" class="cls-1" d="M50.053,43a1.526,1.526,0,0,0-1.528,1.528v4.583a1.528,1.528,0,0,0,3.055,0V44.528A1.526,1.526,0,0,0,50.053,43Z" transform="translate(25.357 22.692)"/>
    <path id="Path_529" data-name="Path 529" class="cls-1" d="M19.053,42.167a1.524,1.524,0,0,0,1.08-.448l6.111-6.111a1.528,1.528,0,0,0-2.16-2.16l-6.111,6.111a1.528,1.528,0,0,0,1.08,2.608Z" transform="translate(8.998 17.415)"/>
    <path id="Path_530" data-name="Path 530" class="cls-1" d="M19.053,46.111a1.524,1.524,0,0,0,1.08-.448l3.055-3.055a1.528,1.528,0,1,0-2.16-2.16L17.973,43.5a1.528,1.528,0,0,0,1.08,2.608Z" transform="translate(8.998 21.109)"/>
    <path id="Path_531" data-name="Path 531" class="cls-1" d="M21.968,38.436a1.6,1.6,0,0,0-.443,1.085,1.539,1.539,0,0,0,1.528,1.528,1.531,1.531,0,1,0-1.085-2.612Z" transform="translate(11.109 20.06)"/>
    <path id="Path_532" data-name="Path 532" class="cls-1" d="M23.972,40.191a1.527,1.527,0,0,0,2.16,0l4.583-4.583a1.528,1.528,0,1,0-2.16-2.16l-4.583,4.583A1.529,1.529,0,0,0,23.972,40.191Z" transform="translate(12.164 17.415)"/>
    <path id="Path_533" data-name="Path 533" class="cls-1" d="M19.053,54.805a1.524,1.524,0,0,0,1.08-.448l13.75-13.75a1.527,1.527,0,1,0-2.16-2.16L17.973,52.2a1.528,1.528,0,0,0,1.08,2.608Z" transform="translate(8.998 20.054)"/>
    <path id="Path_534" data-name="Path 534" class="cls-1" d="M28.968,38.606a1.549,1.549,0,1,0-.443-1.085A1.6,1.6,0,0,0,28.968,38.606Z" transform="translate(14.803 19.005)"/>
  </g>
</svg>
